<svg width="20" height="16" viewBox="0 0 20 16" fill="none" xmlns="http://www.w3.org/2000/svg">
<path d="M9.99432 5.73206C11.6465 5.73206 12.9943 7.07988 12.9943 8.73206C12.9943 10.3842 11.6465 11.7103 9.99432 11.7103C8.34215 11.7103 6.99432 10.3625 6.99432 8.71032C6.99432 7.05814 8.34215 5.73206 9.99432 5.73206Z" fill="#8FE2D8"/>
<path d="M2.3913 2.78261H4.47826L5.63043 1.04348C6.06522 0.391304 6.82609 0 7.6087 0H12.3913C13.1739 0 13.9348 0.391304 14.3696 1.04348L15.5217 2.78261H17.6087C18.9348 2.78261 20 3.84783 20 5.17391V13.6087C20 14.9348 18.9348 16 17.6087 16H2.3913C1.06522 16 0 14.9348 0 13.6087V5.17391C0 3.84783 1.06522 2.78261 2.3913 2.78261ZM10 14.0435C12.9783 14.0435 15.3913 11.6304 15.3913 8.65217C15.3913 5.67391 12.9783 3.28261 10 3.28261C7.02174 3.28261 4.6087 5.69565 4.6087 8.67391C4.6087 11.6304 7.02174 14.0435 10 14.0435ZM2.69565 6.15217C2.71739 6.15217 2.73913 6.15217 2.78261 6.15217H3.65217C4.04348 6.13043 4.34783 5.80435 4.32609 5.41304C4.30435 5.04348 4.02174 4.76087 3.65217 4.73913H2.78261C2.3913 4.71739 2.06522 5.02174 2.04348 5.41304C2.02174 5.80435 2.30435 6.13043 2.69565 6.15217Z" fill="#8FE2D8"/>
</svg>
