<svg width="28" height="25" viewBox="0 0 28 25" fill="none" xmlns="http://www.w3.org/2000/svg">
<path d="M4.0756 25H2.09161L3.49453 23.5774C4.25097 22.8103 4.72335 21.8127 4.85034 20.7304C2.87643 19.4168 1.43302 17.6887 0.660358 15.7068C-0.111752 13.7264 -0.208779 11.5463 0.379795 9.40222C1.086 6.8295 2.74236 4.48456 5.04368 2.79928C7.54448 0.968 10.6577 0 14.0468 0C18.3162 0 21.9148 1.24383 24.4534 3.59694C26.7405 5.71689 28 8.57639 28 11.6488C28 13.1414 27.7003 14.5938 27.1092 15.9656C26.4975 17.3851 25.6018 18.6491 24.4469 19.7222C21.9049 22.0846 18.3085 23.3333 14.0467 23.3333C12.4647 23.3333 10.8138 23.1192 9.33984 22.7262C7.9447 24.1774 6.05417 25 4.0756 25ZM14.0468 1.66667C7.2511 1.66667 3.08122 5.77628 1.96319 9.84917C0.906679 13.6981 2.4641 17.3349 6.12934 19.5778L6.53887 19.8284L6.52627 20.3132C6.50129 21.2729 6.27567 22.1972 5.87184 23.0328C6.85521 22.6954 7.74752 22.0837 8.44627 21.2466L8.79373 20.8303L9.309 20.9866C10.755 21.4252 12.4375 21.6667 14.0468 21.6667C22.5043 21.6667 26.3564 16.4737 26.3564 11.6488C26.3564 9.05011 25.2867 6.62744 23.3444 4.82711C21.1139 2.75956 17.8988 1.66667 14.0468 1.66667Z" fill="#74C9BE"/>
</svg>
